State Name,Show Name,Braider Name,Competitor Name,Services,Amount,Date,Division,
5,14,Melburn,my show,vipin second,20000.00,2015-07-19 14:29:26,Test,
5,14,Melburn,my show,vipin second,20000.00,2015-07-19 14:29:26,Test,
5,14,Melburn,my show,vipin second,20000.00,2015-07-19 14:29:26,Test,
