Show Name,Braider Name,Available Date,
COLORADO SPRINGS FALL PREVIEW,Martha Price,2015-09-03,
COLORADO SPRINGS FALL PREVIEW,Martha Price,2015-09-05,
COLORADO SPRINGS FALL PREVIEW,Martha Price,2015-09-04,
COLORADO SPRINGS FALL PREVIEW,Martha Price,2015-09-06,
NEW YORK STATE FAIR,Amy Papelino,2015-08-27,
NEW YORK STATE FAIR,Amy Papelino,2015-08-30,
NEW YORK STATE FAIR,Amy Papelino,2015-09-02,
NEW YORK STATE FAIR,Amy Papelino,2015-09-05,
NEW YORK STATE FAIR,Amy Papelino,2015-09-06,
NEW YORK STATE FAIR,Amy Papelino,2015-08-31,
NEW YORK STATE FAIR,Amy Papelino,2015-08-28,
NEW YORK STATE FAIR,Amy Papelino,2015-09-03,
NEW YORK STATE FAIR,Amy Papelino,2015-09-07,
NEW YORK STATE FAIR,Amy Papelino,2015-09-04,
NEW YORK STATE FAIR,Amy Papelino,2015-09-01,
NEW YORK STATE FAIR,Amy Papelino,2015-08-29,
NY MORGAN REGIONAL,Amy Papelino,2015-09-16,
NY MORGAN REGIONAL,Amy Papelino,2015-09-19,
NY MORGAN REGIONAL,Amy Papelino,2015-09-18,
NY MORGAN REGIONAL,Amy Papelino,2015-09-17,
AUTUMN IN NEW YORK,Amy Papelino,2015-10-02,
AUTUMN IN NEW YORK,Amy Papelino,2015-10-03,
AUTUMN IN NEW YORK,Amy Papelino,2015-10-04,
Silver Sands Bridle Club Hunter - Jumper Schooling Show,Isabelle Baltaci,2015-09-19,
Silver Sands Bridle Club Hunter - Jumper Schooling Show,Isabelle Baltaci,2015-09-20,
TEXAS ROSE DRESSAGE FALL CLASSIC I,Kayla Larson,2015-09-18,
TEXAS ROSE DRESSAGE FALL CLASSIC I,Kayla Larson,2015-09-19,
EASTERN STATES EXPOSITION I,Katie Jean Carson,2015-09-16,
EASTERN STATES EXPOSITION I,Katie Jean Carson,2015-09-20,
EASTERN STATES EXPOSITION I,Katie Jean Carson,2015-09-18,
EASTERN STATES EXPOSITION I,Katie Jean Carson,2015-09-17,
EASTERN STATES EXPOSITION I,Katie Jean Carson,2015-09-19,
MA HORSEMEN'S COUNCIL DAYS OF CHAMPIONS>,Katie Jean Carson,2015-09-25,
MA HORSEMEN'S COUNCIL DAYS OF CHAMPIONS>,Katie Jean Carson,2015-09-27,
MA HORSEMEN'S COUNCIL DAYS OF CHAMPIONS>,Katie Jean Carson,2015-09-26,
THE LAS VEGAS NATIONAL,Martha Price,2015-11-15,
THE LAS VEGAS NATIONAL,Martha Price,2015-11-13,
THE LAS VEGAS NATIONAL,Martha Price,2015-11-11,
THE LAS VEGAS NATIONAL,Martha Price,2015-11-14,
LONG ISLAND CLASSIC,Lindsay,2015-09-05,
LONG ISLAND CLASSIC,Lindsay,2015-09-06,
THOMAS SCHOOL SEPTEMBER,Lindsay,2015-09-20,
HUNTER'S ISLE OCTOBER,Lindsay,2015-10-10,
HUNTER'S ISLE OCTOBER,Lindsay,2015-10-11,
MOUNTAIN MUSIC DRESSAGE,Test,2015-09-12,
BAYMAR FARMS INC,Correne Rodas,2015-10-18,
VADAF DRESSAGE AT ROSE MOUNT I,Lisa Beckwith,2015-09-12,
VADAF DRESSAGE AT ROSE MOUNT II,Lisa Beckwith,2015-09-13,
GREAT AMERICAN INSURANCE GROUP/UNITED STATES DRESSAGE FEDERATION REGION 1 DRESSAGE CHAMPIONSHIPS LICENSED BY UNITED STATES EQUES,Lisa Beckwith,2015-10-15,
GREAT AMERICAN INSURANCE GROUP/UNITED STATES DRESSAGE FEDERATION REGION 1 DRESSAGE CHAMPIONSHIPS LICENSED BY UNITED STATES EQUES,Lisa Beckwith,2015-10-16,
GREAT AMERICAN INSURANCE GROUP/UNITED STATES DRESSAGE FEDERATION REGION 1 DRESSAGE CHAMPIONSHIPS LICENSED BY UNITED STATES EQUES,Lisa Beckwith,2015-10-17,
GREAT AMERICAN INSURANCE GROUP/UNITED STATES DRESSAGE FEDERATION REGION 1 DRESSAGE CHAMPIONSHIPS LICENSED BY UNITED STATES EQUES,Lisa Beckwith,2015-10-18,
DRESSAGE AT DEVON,Lisa Beckwith,2015-09-30,
CULPEPER FINALS,Kerianne Manipole,2015-09-24,
CULPEPER FINALS,Kerianne Manipole,2015-09-25,
CULPEPER FINALS,Kerianne Manipole,2015-09-23,
CULPEPER FINALS,Kerianne Manipole,2015-09-27,
CULPEPER FINALS,Kerianne Manipole,2015-09-26,
