State Name,Show Name,Braider Name,Competitor Name,Services,Amount,Date,Division,
12,51,Georgia,tesdt12345,,,,Test,
12,13,Georgia,tesdt12345,,,,Test,
12,51,Georgia,tesdt12345,,,,Test,
12,51,Georgia,tesdt12345,,,,Test,
12,51,Georgia,tesdt12345,,,,Test,
